[gd_scene load_steps=3 format=1]

[ext_resource path="res://scripts/Main.gd" type="Script" id=1]
[ext_resource path="res://scenes/GUIOverlay.tscn" type="PackedScene" id=2]

[node name="Main" type="Node"]

script/script = ExtResource( 1 )

[node name="Viewer" type="Spatial" parent="."]

_import_transform = Transform( 1, 0, 0, 0, 1, 0, 0, 0, 1, 0, 0, 0 )

[node name="GUI" type="Node2D" parent="."]

[node name="GUIOverlay" parent="GUI" instance=ExtResource( 2 )]


